{ id: '5aa114dbd3f75c43cc193cbd',
  params:
  { query: {},
    route: {},
    provider: 'rest',
    headers:
    { host: 'localhost:3030',
      connection: 'keep-alive',
      'cache-control': 'no-cache',
      'user-agent': 'Mozilla/5.0 (Windows NT 10.0; Win64; x64) AppleWebKit/537.36 (KHTML, like Gecko) Chro
      me/64.0.3282.186 Safari/537.36',
      'postman-token': '086327b7-9d41-c2d5-7376-0e6b4dda0515',
      accept: '*/*',
      'accept-encoding': 'gzip, deflate, br',
      'accept-language': 'en-US,en;q=0.9' } },
  type: 'before',
  service:
  { Model: undefined,
    id: '_id',
    events: [],
    paginate: { default: 10, max: 50 },
    find: [Function],
    get: [Function],
    create: [Function],
    patch: [Function],
    update: [Function],
    remove: [Function],
    hooks: [Function: hooks],
    domain: undefined,
    _events:
    { created: [Function],
      updated: [Function],
      removed: [Function],
      patched: [Function] },
    _maxListeners: undefined,
    setMaxListeners: [Function: setMaxListeners],
    getMaxListeners: [Function: getMaxListeners],
    emit: [Function: emit],
    addListener: [Function: addListener],
    on: [Function: addListener],
    prependListener: [Function: prependListener],
    once: [Function: once],
    prependOnceListener: [Function: prependOnceListener],
    removeListener: [Function: removeListener],
    removeAllListeners: [Function: removeAllListeners],
    listeners: [Function: listeners],
    listenerCount: [Function: listenerCount],
    eventNames: [Function: eventNames],
    publish: [Function: publish],
    _eventsCount: 4,
    _super: undefined,
[Symbol(@feathersjs/transport-commons/publishers)]: {} },
app:
{ [EventEmitter: app]
domain: undefined,
_events:
{ mount: [Function: onmount],
publish: [Function],
connection: [Function],
login: [Function] },
_maxListeners: undefined,
setMaxListeners: [Function: setMaxListeners],
getMaxListeners: [Function: getMaxListeners],
emit: [Function: emit],
addListener: [Function: addListener],
on: [Function: addListener],
prependListener: [Function: prependListener],
once: [Function: once],
prependOnceListener: [Function: prependOnceListener],
removeListener: [Function: removeListener],
removeAllListeners: [Function: removeAllListeners],
listeners: [Function: listeners],
listenerCount: [Function: listenerCount],
eventNames: [Function: eventNames],
init: [Function: init],
defaultConfiguration: [Function: defaultConfiguration],
lazyrouter: [Function: lazyrouter],
handle: [Function: handle],
use: [Function],
route: [Function: route],
engine: [Function: engine],
param: [Function: param],
set: [Function: set],
path: [Function: path],
enabled: [Function: enabled],
disabled: [Function: disabled],
enable: [Function: enable],
disable: [Function: disable],
acl: [Function],
bind: [Function],
checkout: [Function],
connect: [Function],
copy: [Function],
delete: [Function],
get: [Function],
head: [Function],
link: [Function],
lock: [Function],
'm-search': [Function],
merge: [Function],
mkactivity: [Function],
mkcalendar: [Function],
mkcol: [Function],
move: [Function],
notify: [Function],
options: [Function],
patch: [Function],
post: [Function],
propfind: [Function],
proppatch: [Function],
purge: [Function],
put: [Function],
rebind: [Function],
report: [Function],
search: [Function],
subscribe: [Function],
trace: [Function],
unbind: [Function],
unlink: [Function],
unlock: [Function],
unsubscribe: [Function],
all: [Function: all],
del: [Function],
render: [Function: render],
listen: [Function],
request: IncomingMessage { app: [Object] },
response: ServerResponse { app: [Object] },
cache: {},
engines: {},
settings:
{ 'x-powered-by': true,
etag: 'weak',
'etag fn': [Function: generateETag],
env: 'development',
'query parser': 'extended',
'query parser fn': [Function: parseExtendedQueryString],
'subdomain offset': 2,
'trust proxy': false,
'trust proxy fn': [Function: trustNone],
view: [Function: View],
views: 'C:\\Users\\kiyos\\Documents\\Dev\\NodeApps\\MedaGameAPI\\views',
'jsonp callback name': 'callback',
host: 'localhost',
port: 3030,
public: 'C:\\Users\\kiyos\\Documents\\Dev\\NodeApps\\MedaGameAPI\\public\\public',
paginate: [Object],
mongodb: 'mongodb://localhost:27017/meda_game_api',
authentication: [Object],
mongoClient: [Object],
auth: [Object] },
_eventsCount: 4,
locals: { settings: [Object] },
mountpath: '/',
configure: [Function: configure],
service: [Function: service],
setup: [Function],
version: '3.1.3',
methods: [ 'find', 'get', 'create', 'update', 'patch', 'remove' ],
mixins:
[ [Function: hookMixin],
[Function: eventMixin],
[Function],
[Function],
[Function] ],
services:
{ authentication: [Object],
question: [Object],
tags: [Object],
game: [Object],
users: [Object],
category: [Object],
messages: [Object],
advertisement: [Object] },
providers: [ [Function] ],
_setup: false,
hookTypes: [ 'before', 'after', 'error', 'finally' ],
hooks: [Function: hooks],
eventMappings:
{ create: 'created',
update: 'updated',
remove: 'removed',
patch: 'patched' },
_super: undefined,
_router:
{ [Function: router]
params: {},
_params: [],
caseSensitive: false,
mergeParams: undefined,
strict: false,
stack: [Array] },
rest:
{ find: [Function],
get: [Function],
create: [Function],
update: [Function],
patch: [Function],
remove: [Function] },
channel: [Function: channel],
publish: [Function: publish],
lookup: [Function: lookup],
passport:
Authenticator {
_key: 'passport',
_strategies: [Object],
_serializers: [],
_deserializers: [],
_infoTransformers: [],
_framework: [Object],
_userProperty: 'user',
_sm: [Object],
Authenticator: [Function: Authenticator],
Passport: [Function: Authenticator],
Strategy: [Object],
strategies: [Object],
_feathers: [Object],
createJWT: [Function: createJWT],
verifyJWT: [Function: verifyJWT],
options: [Function] },
authenticate: [Function: bound ],
io:
Server {
nsps: [Object],
_path: '/socket.io',
_serveClient: true,
parser: [Object],
encoder: Encoder {},
_adapter: [Function: Adapter],
_origins: '*:*',
sockets: [Object],
eio: [Object],
httpServer: [Object],
engine: [Object] },
_isSetup: true,
[Symbol(@feathersjs/transport-commons/channels)]: {},
[Symbol(@feathersjs/transport-commons/publishers)]: { patched: [Function], updated: [Function], created
: [Function] },
[Symbol(@feathersjs/transport-commons/router)]:
{ _rootNode: [Object],
_strictMode: undefined,
_staticRoutesMap: [Object] } },
method: 'get',
path: 'game' }
